<!-- Generated by IcoMoon.io -->
<svg version="1.1" xmlns="http://www.w3.org/2000/svg" width="32" height="32" viewBox="0 0 32 32">
<title>icons_left</title>
<path d="M31.216 28.28l-12.080-12.080 12.080-12.072-3.216-3.112-15.184 15.184 15.208 15.216 3.192-3.136z"></path>
</svg>
