<!-- Generated by IcoMoon.io -->
<svg version="1.1" xmlns="http://www.w3.org/2000/svg" width="32" height="32" viewBox="0 0 32 32">
<title>icons_download</title>
<path d="M28.8 18.24l-12.4 12.24-12.4-12.24v-8.064l9.6 9.304v-17.88h4.8v17.816l10.4-9.256v8.080z"></path>
</svg>
