<!-- Generated by IcoMoon.io -->
<svg version="1.1" xmlns="http://www.w3.org/2000/svg" width="32" height="32" viewBox="0 0 32 32">
<title>icons_dataset</title>
<path fill="#020202" d="M13.6 16h3.2v11.2h-3.2v-11.2z"></path>
<path fill="#020202" d="M19.2 12h3.2v15.2h-3.2v-15.2z"></path>
<path fill="#020202" d="M8.8 20h3.2v7.2h-3.2v-7.2z"></path>
<path fill="#231f20" d="M19.768 2.4h-15.768v28.8h24v-20.952zM26.4 29.6h-20.8v-25.6h13.6v6.4h7.2z"></path>
</svg>
